{
    "stops": [
        {
            "id": 12345,
            "coord1": 59.951887, 
            "coord2": 30.237281,
            "name": "переулок Каховского",
            "routes": [
                {
                    "routeId": 10040,
                    "timeTable": ["6:30", "6:45", "7:00", "7:15", "7:30", "7:45", "8:00"]
                },
                {
                    "routeId": 11040,
                    "timeTable": ["6:35", "6:50", "7:05", "7:20", "7:35", "7:50", "8:05"]
                }
            ]
            
        },
        {
            "id": 12346,
            "coord1": 59.951166, 
            "coord2": 30.246701,
            "name": "проспект КИМа",
            "routes": [
                {
                    "routeId": 10040,
                    "timeTable": ["6:30", "6:45", "7:00", "7:15", "7:30", "7:45", "8:00"]
                },
                {
                    "routeId": 11040,
                    "timeTable": ["6:35", "6:50", "7:05", "7:20", "7:35", "7:50", "8:05"]
                }
            ]
        },
        {
            "id": 12347,
            "coord1": 59.947668, 
            "coord2": 30.255692,
            "name": "набережная реки Смоленки",
            "routes": [
                {
                    "routeId": 10040,
                    "timeTable": ["6:30", "6:45", "7:00", "7:15", "7:30", "7:45", "8:00"]
                },
                {
                    "routeId": 11040,
                    "timeTable": ["6:35", "6:50", "7:05", "7:20", "7:35", "7:50", "8:05"]
                }
            ]
        }
    ],
    "routes": [
        {
            "id": 10040,
            "name": "40",
            "stops": [12345, 12346, 12347],
            "tranports": [106789, 106790, 106791, 1067892],
            "transportType": "bus"
        },
        {
            "id": 11040,
            "name": "40R",
            "stops": [12347, 12346, 12345],
            "tranports": [106789, 106790, 106791, 1067892],
            "transportType": "bus"
        }
    ],
    "transports": [
        {
            "id": 106789,
            "transportType": "bus",
            "routeId": 10040,
            "seats": 120
        },
        {
            "id": 106790,
            "transportType": "bus",
            "routeId": 10040,
            "seats": 120
        },
        {
            "id": 106791,
            "transportType": "bus",
            "routeId": 10040,
            "seats": 120
        },
        {
            "id": 106792,
            "transportType": "bus",
            "routeId": 10040,
            "seats": 120
        }
    ]
}